{
    "jobQueueName": "low-priority-q",
    "state": "ENABLED",
    "priority": 10,
    "computeEnvironmentOrder": [
        {
            "order": 0,
            "computeEnvironment": "arn:aws:batch:us-east-2:864940086962:compute-environment/batch-demo-cli"
        }
    ]
}
